[
    {
        "patient_id": 1,
        "matched_organs": [
            {
                "offerNo": 1,
                "serial_number": "ORG001",
                "tissue_compatibility_score": 85,
                "ethnicity_match_percentage": 92,
                "hla_type_I_mismatch": 1,
                "hla_type_II_mismatch": 2,
                "graft_survival": {
                    "months": 60,
                    "confidence_rate": 95,
                    "confidence_interval": [55, 65]
                },
                "next_offer": {
                    "in_months": 3,
                    "estimated_graft_survival": 55
                }
            },
            {
                "offerNo": 2,
                "serial_number": "ORG002",
                "tissue_compatibility_score": 85,
                "ethnicity_match_percentage": 92,
                "hla_type_I_mismatch": 1,
                "hla_type_II_mismatch": 2,
                "graft_survival": {
                    "months": 60,
                    "confidence_rate": 95,
                    "confidence_interval": [55, 65]
                },
                "next_offer": {
                    "in_months": 3,
                    "estimated_graft_survival": 55
                }
            },
            {
                "offerNo": 3,
                "serial_number": "ORG003",
                "tissue_compatibility_score": 85,
                "ethnicity_match_percentage": 92,
                "hla_type_I_mismatch": 1,
                "hla_type_II_mismatch": 2,
                "graft_survival": {
                    "months": 60,
                    "confidence_rate": 95,
                    "confidence_interval": [55, 65]
                },
                "next_offer": {
                    "in_months": 3,
                    "estimated_graft_survival": 55
                }
            }
        ]
    },
    {
        "patient_id": 2,
        "matched_organs": [
            {
                "offerNo": 1,
                "serial_number": "ORG002",
                "tissue_compatibility_score": 90,
                "ethnicity_match_percentage": 88,
                "hla_type_I_mismatch": 0,
                "hla_type_II_mismatch": 1,
                "graft_survival": {
                    "months": 72,
                    "confidence_rate": 95,
                    "confidence_interval": [70, 75]
                },
                "next_offer": {
                    "in_months": 5,
                    "estimated_graft_survival": 70
                }
            }
        ]
    },
    {
        "patient_id": 3,
        "matched_organs": [
            {
                "offerNo": 1,
                "serial_number": "ORG003",
                "tissue_compatibility_score": 88,
                "ethnicity_match_percentage": 95,
                "hla_type_I_mismatch": 2,
                "hla_type_II_mismatch": 1,
                "graft_survival": {
                    "months": 65,
                    "confidence_rate": 95,
                    "confidence_interval": [60, 70]
                },
                "next_offer": {
                    "in_months": 4,
                    "estimated_graft_survival": 63
                }
            }
        ]
    },
    {
        "patient_id": 4,
        "matched_organs": [] 
    },
    {
        "patient_id": 5,
        "matched_organs": [
            {
                "offerNo": 1,
                "serial_number": "ORG001",
                "tissue_compatibility_score": 82,
                "ethnicity_match_percentage": 90,
                "hla_type_I_mismatch": 1,
                "hla_type_II_mismatch": 3,
                "graft_survival": {
                    "months": 58,
                    "confidence_rate": 95,
                    "confidence_interval": [55, 62]
                },
                "next_offer": {
                    "in_months": 2,
                    "estimated_graft_survival": 57
                }
            },
            {
                "offerNo": 2,
                "serial_number": "ORG005",
                "tissue_compatibility_score": 78,
                "ethnicity_match_percentage": 87,
                "hla_type_I_mismatch": 2,
                "hla_type_II_mismatch": 2,
                "graft_survival": {
                    "months": 50,
                    "confidence_rate": 95,
                    "confidence_interval": [45, 55]
                },
                "next_offer": {
                    "in_months": 6,
                    "estimated_graft_survival": 48
                }
            }
        ]
    },
    {
        "patient_id": 6,
        "matched_organs": [
            {
                "offerNo": 1,
                "serial_number": "ORG002",
                "tissue_compatibility_score": 89,
                "ethnicity_match_percentage": 93,
                "hla_type_I_mismatch": 0,
                "hla_type_II_mismatch": 0,
                "graft_survival": {
                    "months": 70,
                    "confidence_rate": 95,
                    "confidence_interval": [68, 73]
                },
                "next_offer": {
                    "in_months": 3,
                    "estimated_graft_survival": 69
                }
            }
        ]
    },
    {
        "patient_id": 7,
        "matched_organs": [] 
    },
    {
        "patient_id": 8,
        "matched_organs": [
            {
                "offerNo": 1,
                "serial_number": "ORG001",
                "tissue_compatibility_score": 84,
                "ethnicity_match_percentage": 91,
                "hla_type_I_mismatch": 1,
                "hla_type_II_mismatch": 2,
                "graft_survival": {
                    "months": 62,
                    "confidence_rate": 95,
                    "confidence_interval": [58, 66]
                },
                "next_offer": {
                    "in_months": 4,
                    "estimated_graft_survival": 60
                }
            }
        ]
    },
    {
        "patient_id": 9,
        "matched_organs": [
            {
                "offerNo": 1,
                "serial_number": "ORG003",
                "tissue_compatibility_score": 87,
                "ethnicity_match_percentage": 94,
                "hla_type_I_mismatch": 2,
                "hla_type_II_mismatch": 1,
                "graft_survival": {
                    "months": 67,
                    "confidence_rate": 95,
                    "confidence_interval": [64, 70]
                },
                "next_offer": {
                    "in_months": 3,
                    "estimated_graft_survival": 65
                }
            }
        ]
    },
    {
        "patient_id": 10,
        "matched_organs": [
            {
                "offerNo": 1,
                "serial_number": "ORG002",
                "tissue_compatibility_score": 86,
                "ethnicity_match_percentage": 89,
				"hla_type_I_mismatch": 1,
                "hla_type_II_mismatch": 2,
                "graft_survival": {
                    "months": 68,
                    "confidence_rate": 95,
                    "confidence_interval": [65, 72]
                },
                "next_offer": {
                    "in_months": 5,
                    "estimated_graft_survival": 66
                }
            },
            {
                "offerNo": 2,
                "serial_number": "ORG005",
                "tissue_compatibility_score": 80,
                "ethnicity_match_percentage": 86,
                "hla_type_I_mismatch": 2,
                "hla_type_II_mismatch": 3,
                "graft_survival": {
                    "months": 54,
                    "confidence_rate": 95,
                    "confidence_interval": [50, 58]
                },
                "next_offer": {
                    "in_months": 6,
                    "estimated_graft_survival": 52
                }
            }
        ]
    }
]

               
